module perf

go 1.13

require (
	github.com/StackExchange/wmi v0.0.0-20190523213315-cbe66965904d // indirect
	github.com/go-ole/go-ole v1.2.4 // indirect
	github.com/shirou/gopsutil v2.19.12+incompatible
	github.com/stretchr/testify v1.4.0 // indirect
	golang.org/x/sys v0.0.0-20200124204421-9fbb57f87de9 // indirect
)
